genomic_data.R
…
depth_filtering.Rmd

Now I have the file called TASSEL_GBS0077_dp_filtered.vcf.gz. This will be my starting point.

Data Setup and Import

library('vcfR')
library('poppr')
library('readr')
library('tidyr')
library('ggplot2')
rubfrag <- read.vcfR('TASSEL_GBS0077_dp_filtered.vcf.gz', verbose = FALSE)
(rfstrata <- read_tsv("rub_frag_strata.txt"))

## # A tibble: 40 x 4
##    VCF_ID Country State Nursery
##     <int>   <chr> <chr>   <chr>
## 1      53     USA    CA       F
## 2      50     USA    CA       F
## 3      64     USA    CA       F
## 4      34     USA    CA       F
## 5      46     USA    CA       F
## 6      37     USA    OR       A
## 7      72     USA    WA       J
## 8      66     USA    OR       G
## 9      45     USA    OR       G
## 10     58     USA    WA       I
## # ... with 30 more rows
…
